{
    "errorMessage": null,
    "searchBufferSize": 7,
    "lookAheadBufferSize": 6,
    "steps": [
        {
            "searchBuffer": "",
            "lookAheadBuffer": "abcdef",
            "matches": [],
            "output": {
                "offset": 0,
                "length": 0,
                "character": "a"
            },
            "strategy": "noMatch"
        },
        {
            "searchBuffer": "a",
            "lookAheadBuffer": "bcdefg",
            "matches": [],
            "output": {
                "offset": 0,
                "length": 0,
                "character": "b"
            },
            "strategy": "noMatch"
        },
        {
            "searchBuffer": "ab",
            "lookAheadBuffer": "cdefgh",
            "matches": [],
            "output": {
                "offset": 0,
                "length": 0,
                "character": "c"
            },
            "strategy": "noMatch"
        },
        {
            "searchBuffer": "abc",
            "lookAheadBuffer": "defghi",
            "matches": [],
            "output": {
                "offset": 0,
                "length": 0,
                "character": "d"
            },
            "strategy": "noMatch"
        },
        {
            "searchBuffer": "abcd",
            "lookAheadBuffer": "efghia",
            "matches": [],
            "output": {
                "offset": 0,
                "length": 0,
                "character": "e"
            },
            "strategy": "noMatch"
        },
        {
            "searchBuffer": "abcde",
            "lookAheadBuffer": "fghiab",
            "matches": [],
            "output": {
                "offset": 0,
                "length": 0,
                "character": "f"
            },
            "strategy": "noMatch"
        },
        {
            "searchBuffer": "abcdef",
            "lookAheadBuffer": "ghiabc",
            "matches": [],
            "output": {
                "offset": 0,
                "length": 0,
                "character": "g"
            },
            "strategy": "noMatch"
        },
        {
            "searchBuffer": "abcdefg",
            "lookAheadBuffer": "hiabcd",
            "matches": [],
            "output": {
                "offset": 0,
                "length": 0,
                "character": "h"
            },
            "strategy": "noMatch"
        },
        {
            "searchBuffer": "bcdefgh",
            "lookAheadBuffer": "iabcde",
            "matches": [],
            "output": {
                "offset": 0,
                "length": 0,
                "character": "i"
            },
            "strategy": "noMatch"
        },
        {
            "searchBuffer": "cdefghi",
            "lookAheadBuffer": "abcdef",
            "matches": [],
            "output": {
                "offset": 0,
                "length": 0,
                "character": "a"
            },
            "strategy": "noMatch"
        },
        {
            "searchBuffer": "defghia",
            "lookAheadBuffer": "bcdefg",
            "matches": [],
            "output": {
                "offset": 0,
                "length": 0,
                "character": "b"
            },
            "strategy": "noMatch"
        },
        {
            "searchBuffer": "efghiab",
            "lookAheadBuffer": "cdefgh",
            "matches": [],
            "output": {
                "offset": 0,
                "length": 0,
                "character": "c"
            },
            "strategy": "noMatch"
        },
        {
            "searchBuffer": "fghiabc",
            "lookAheadBuffer": "defghi",
            "matches": [],
            "output": {
                "offset": 0,
                "length": 0,
                "character": "d"
            },
            "strategy": "noMatch"
        },
        {
            "searchBuffer": "ghiabcd",
            "lookAheadBuffer": "efghi",
            "matches": [],
            "output": {
                "offset": 0,
                "length": 0,
                "character": "e"
            },
            "strategy": "noMatch"
        },
        {
            "searchBuffer": "hiabcde",
            "lookAheadBuffer": "fghi",
            "matches": [],
            "output": {
                "offset": 0,
                "length": 0,
                "character": "f"
            },
            "strategy": "noMatch"
        },
        {
            "searchBuffer": "iabcdef",
            "lookAheadBuffer": "ghi",
            "matches": [],
            "output": {
                "offset": 0,
                "length": 0,
                "character": "g"
            },
            "strategy": "noMatch"
        },
        {
            "searchBuffer": "abcdefg",
            "lookAheadBuffer": "hi",
            "matches": [],
            "output": {
                "offset": 0,
                "length": 0,
                "character": "h"
            },
            "strategy": "noMatch"
        },
        {
            "searchBuffer": "bcdefgh",
            "lookAheadBuffer": "i",
            "matches": [],
            "output": {
                "offset": 0,
                "length": 0,
                "character": "i"
            },
            "strategy": "lastCharacter"
        }
    ],
    "stepCount": 18
}
