{
    "errorMessage": null,
    "steps": [
        {
            "dictionaryUpdate": {
                "index": 1,
                "entry": "A"
            },
            "output": {
                "index": 0,
                "character": "A"
            },
            "strategy": "bestMatch"
        },
        {
            "dictionaryUpdate": {
                "index": 2,
                "entry": "S"
            },
            "output": {
                "index": 0,
                "character": "S"
            },
            "strategy": "bestMatch"
        },
        {
            "dictionaryUpdate": {
                "index": 3,
                "entry": "C"
            },
            "output": {
                "index": 0,
                "character": "C"
            },
            "strategy": "bestMatch"
        },
        {
            "dictionaryUpdate": {
                "index": 4,
                "entry": "I"
            },
            "output": {
                "index": 0,
                "character": "I"
            },
            "strategy": "bestMatch"
        },
        {
            "dictionaryUpdate": {
                "index": 5,
                "entry": "I "
            },
            "output": {
                "index": 4,
                "character": " "
            },
            "strategy": "bestMatch"
        },
        {
            "dictionaryUpdate": {
                "index": 6,
                "entry": "AN"
            },
            "output": {
                "index": 1,
                "character": "N"
            },
            "strategy": "bestMatch"
        },
        {
            "dictionaryUpdate": {
                "index": 7,
                "entry": "SI"
            },
            "strategy": "lastPart",
            "output": {
                "index": 2,
                "character": "I"
            }
        }
    ],
    "stepCount": 7
}