{
    "errorMessage": null,
    "steps": [
        {
            "dictionaryUpdate": {
                "index": 6,
                "entry": "TH"
            },
            "output": 5
        },
        {
            "dictionaryUpdate": {
                "index": 7,
                "entry": "HI"
            },
            "output": 2
        },
        {
            "dictionaryUpdate": {
                "index": 8,
                "entry": "IS"
            },
            "output": 3
        },
        {
            "dictionaryUpdate": {
                "index": 9,
                "entry": "S "
            },
            "output": 4
        },
        {
            "dictionaryUpdate": {
                "index": 10,
                "entry": " I"
            },
            "output": 1
        },
        {
            "dictionaryUpdate": {
                "index": 11,
                "entry": "IS "
            },
            "output": 8
        },
        {
            "dictionaryUpdate": {
                "index": 12,
                "entry": " H"
            },
            "output": 1
        },
        {
            "dictionaryUpdate": {
                "index": 13,
                "entry": "HIS"
            },
            "output": 7
        },
        {
            "dictionaryUpdate": {
                "index": 14,
                "entry": "S H"
            },
            "output": 9
        },
        {
            "dictionaryUpdate": {
                "index": 15,
                "entry": "HIT"
            },
            "output": 7
        },
        {
            "dictionaryUpdate": null,
            "output": 5
        }
    ],
    "initialDictionary": {
        "1": " ",
        "2": "H",
        "3": "I",
        "4": "S",
        "5": "T"
    },
    "stepCount": 11
}
